…
They did not suceed as only half of Rwanda's data and half of Afghanistan's data was retried. If the data is inspected it can be noted that the odd `year` of Afghanistan and the even `year` of Rwanda is retrived.

#### Why or why not?

They did not succed because the equality sign is comparing a smaller vector of 2 characters `'Afghanistan','Rwanda'` to a larger vector of 1704 characters, where character vectors are being recyled in the sense.

This `gapminder$country == c('Afghanistan','Rwanda','Afghanistan','Rwanda','Afghanistan','Rwanda'...)` is happening where every odd years of Afganistan is taken due to it being in the first position and its halfed due to the recycled loop and every even years of Rwanda is taken due to it being in the second position and is halfed as well..

#### If not, what is the correct way to do this?

``` r
filter(gapminder, country %in% c("Rwanda", "Afghanistan"))
```

    ## # A tibble: 24 x 6
    ##    country     continent  year lifeExp      pop gdpPercap
    ##    <fct>       <fct>     <int>   <dbl>    <int>     <dbl>
    ##  1 Afghanistan Asia       1952    28.8  8425333      779.
    ##  2 Afghanistan Asia       1957    30.3  9240934      821.
    ##  3 Afghanistan Asia       1962    32.0 10267083      853.
    ##  4 Afghanistan Asia       1967    34.0 11537966      836.
    ##  5 Afghanistan Asia       1972    36.1 13079460      740.
    ##  6 Afghanistan Asia       1977    38.4 14880372      786.
    ##  7 Afghanistan Asia       1982    39.9 12881816      978.
    ##  8 Afghanistan Asia       1987    40.8 13867957      852.
    ##  9 Afghanistan Asia       1992    41.7 16317921      649.
    ## 10 Afghanistan Asia       1997    41.8 22227415      635.
    ## # ... with 14 more rows
…
